{
  "ServerIP": "127.0.0.1",
  "ServerID": "4",
  "ServerQueryPort": "10011",
  "ServerQueryUser": "serveradmin",
  "ServerQueryPassword": "PASSWORD",
  "BaseChannelID": "35",
  "ListeningChannelID": "35",
  "ChannelPermGrpID": "17",
  "BotNickname": "Exylian TS3 Bot"
}

